…
A summary of the total number of records by species, and the total number of species with data by family is provided using `dbSummary()`.

``` r
dbSummary()
#> $numRecords
#> [1] 56008
#> 
#> $numSpecies
#> [1] 600
#> 
#> $numStudies
#> [1] 778
#> 
#> $recordsPerSpecies
#> # A tibble: 600 x 3
#>    Common_Name                                   Family               n
#>    <chr>                                         <chr>            <int>
#>  1 Abert's Towhee                                Passerellidae       17
#>  2 Acadian Flycatcher                            Tyrannidae          37
#>  3 Acorn Woodpecker                              Picidae             70
#>  4 Adelaide's Warbler                            Parulidae           33
#>  5 African Pygmy-Goose                           Anatidae            10
#>  6 Alder/Willow Flycatcher (Traill's Flycatcher) Tyrannidae          87
#>  7 American Avocet                               Recurvirostridae     8
#>  8 American Black Duck                           Anatidae            51
#>  9 American Coot                                 Rallidae           198
#> 10 American Crow                                 Corvidae           225
#> # ... with 590 more rows
#> 
#> $speciesPerFamily
#> # A tibble: 99 x 4
#>    Order            Family        SpeciesWithData PercentComplete
#>    <chr>            <chr>                   <dbl>           <dbl>
#>  1 Accipitriformes  Accipitridae               25              71
#>  2 Accipitriformes  Pandionidae                 1             100
#>  3 Anseriformes     Anatidae                  103              88
#>  4 Bucerotiformes   Upupidae                    0               0
#>  5 Caprimulgiformes Apodidae                    2              20
#>  6 Caprimulgiformes Caprimulgidae               4              40
#>  7 Caprimulgiformes Trochilidae                11              37
#>  8 Cathartiformes   Cathartidae                 3              75
#>  9 Charadriiformes  Alcidae                     1               4
#> 10 Charadriiformes  Charadriidae                1               6
#> # ... with 89 more rows
```
…
